%!PS-Adobe-3.0
%%Title: AnalyzeControl.java, AnalyzeCore.java
%%For: Nicholas J. Macias
%%Creator: a2ps version 4.14
%%CreationDate: Sat Oct 20 17:16:34 2018
%%BoundingBox: 24 24 588 768
%%DocumentData: Clean7Bit
%%Orientation: Landscape
%%Pages: 4
%%PageOrder: Ascend
%%DocumentMedia: Letter 612 792 0 () ()
%%DocumentNeededResources: font Courier
%%+ font Courier-Bold
%%+ font Courier-BoldOblique
%%+ font Courier-Oblique
%%+ font Helvetica
%%+ font Helvetica-Bold
%%+ font Symbol
%%+ font Times-Bold
%%+ font Times-Roman
%%DocumentProcessColors: Black 
%%DocumentSuppliedResources: procset a2ps-a2ps-hdr
%%+ procset a2ps-black+white-Prolog
%%+ encoding ISO-8859-1Encoding
%%EndComments
/a2psdict 200 dict def
a2psdict begin
%%BeginProlog
%%Copyright: (c) 1988, 89, 90, 91, 92, 93 Miguel Santana
%%Copyright: (c) 1995, 96, 97, 98 Akim Demaille, Miguel Santana
% Check PostScript language level.
/languagelevel where {
  pop /gs_languagelevel languagelevel def
} {
  /gs_languagelevel 1 def
} ifelse

% EPSF import as in the Red Book
/BeginInclude {
  /b4_Inc_state save def    		% Save state for cleanup
  /dict_count countdictstack def	% Count objects on dict stack
  /op_count count 1 sub def		% Count objects on operand stack 
  userdict begin
    0 setgray 0 setlinecap
    1 setlinewidth 0 setlinejoin
    10 setmiterlimit [ ] 0 setdash newpath
    gs_languagelevel 1 ne {
      false setstrokeadjust false setoverprint 
    } if
} bind def

/EndInclude {
  count op_count sub { pos } repeat	% Clean up stacks
  countdictstack dict_count sub { end } repeat
  b4_Inc_state restore
} bind def

/BeginEPSF {
  BeginInclude
  /showpage { } def
} bind def

/EndEPSF {
  EndInclude
} bind def

% Page prefeed
/page_prefeed {         % bool -> -
  statusdict /prefeed known {
    statusdict exch /prefeed exch put
  } {
    pop
  } ifelse
} bind def

/deffont {
  findfont exch scalefont def
} bind def

/reencode_font {
  findfont reencode 2 copy definefont pop def
} bind def

% Function c-show (str => -)
% centers text only according to x axis.
/c-show { 
  dup stringwidth pop
  2 div neg 0 rmoveto
  show
} bind def

% Function l-show (str => -)
% prints texts so that it ends at currentpoint
/l-show {
  dup stringwidth pop neg 
  0 
  rmoveto show
} bind def

% center-fit show (str w => -)
% show centered, and scale currentfont so that the width is less than w
/cfshow {
  exch dup stringwidth pop
  % If the title is too big, try to make it smaller
  3 2 roll 2 copy
  gt
  { % if, i.e. too big
    exch div
    currentfont exch scalefont setfont
  } { % ifelse
    pop pop 
  }
  ifelse
  c-show			% center title
} bind def

% Return the y size of the current font
% - => fontsize
/currentfontsize {
  currentfont /FontType get 0 eq {
    currentfont /FontMatrix get 3 get
  }{
    currentfont /FontMatrix get 3 get 1000 mul
  } ifelse
} bind def

% reencode the font
% <encoding-vector> <fontdict> -> <newfontdict>
/reencode { %def
  dup length 5 add dict begin
    { %forall
      % <vector> <key> <val>
      1 index /FID ne 
      { def }{ pop pop } ifelse
    } forall
    /Encoding exch def % -

    % Use the font's bounding box to determine the ascent, descent,
    % and overall height; don't forget that these values have to be
    % transformed using the font's matrix.
    % We use `load' because sometimes BBox is executable, sometimes not.
    % Since we need 4 numbers an not an array avoid BBox from being executed
    /FontBBox load aload pop
    FontMatrix transform /Ascent exch def pop
    FontMatrix transform /Descent exch def pop
    /FontHeight Ascent Descent sub def

    % Get the underline position and thickness if they're defined.
    % Use 1 if they are not defined.
    currentdict /FontInfo 2 copy known
    { get
      /UnderlinePosition 2 copy % <FontInfo> /UP <FontInfo> /UP
      2 copy known
      { get }{ pop pop 1 } ifelse
      0 exch FontMatrix transform exch pop
      def % <FontInfo>

      /UnderlineThickness 2 copy % <FontInfo> /UT <FontInfo> /UT
      2 copy known
      { get }{ pop pop 1 } ifelse
      0 exch FontMatrix transform exch pop
      def % <FontInfo>
      pop % -
    }{ pop pop
    } ifelse

    currentdict
  end 
} bind def

% composite fonts for ASCII-EUC mixed strings
% Version 1.2 1/31/1990
% Original Ken'ichi HANDA (handa@etl.go.jp)
% Modified Norio Katayama (katayama@rd.nacsis.ac.jp),1998
% Extend & Fix Koji Nakamaru (maru@on.cs.keio.ac.jp), 1999
% Anyone can freely copy, modify, distribute this program.

/copyfont {	% font-dic extra-entry-count  copyfont  font-dic
	1 index maxlength add dict begin
	{	1 index /FID ne 2 index /UniqueID ne and
		{def} {pop pop} ifelse
	} forall
	currentdict
	end
} bind def

/compositefont { % ASCIIFontName EUCFontName RomanScale RomanOffset Rot(T/F) compositefont font
    /RomanRotation exch def
    /RomanOffset exch def
    /RomanScale exch def
    userdict /fixeucfont_dict known not {
	userdict begin
	    /fixeucfont_dict 2 dict begin
		/UpperByteEncoding [
		    16#00 1 16#20 { pop 0 } for
		    16#21 1 16#28 { 16#20 sub } for
		    16#29 1 16#2F { pop 0 } for
		    16#30 1 16#74 { 16#27 sub } for
		    16#75 1 16#FF { pop 0 } for
		] def
	        /LowerByteEncoding [
		    16#00 1 16#A0 { pop /.notdef } for
		    16#A1 1 16#FE { 16#80 sub 16 2 string cvrs
				    (cXX) dup 1 4 -1 roll
				    putinterval cvn } for
		    /.notdef
		] def
		currentdict
	    end def
	end
    } if
    findfont dup /FontType get 0 eq {
	14 dict begin
	    %
	    % 7+8 bit EUC font
	    %
	    12 dict begin
		/EUCFont exch def
		/FontInfo (7+8 bit EUC font) readonly def
		/PaintType 0 def
		/FontType 0 def
		/FontMatrix matrix def
		% /FontName
		/Encoding fixeucfont_dict /UpperByteEncoding get def
		/FMapType 2 def
		EUCFont /WMode known
		{ EUCFont /WMode get /WMode exch def }
		{ /WMode 0 def } ifelse
		/FDepVector [
		    EUCFont /FDepVector get 0 get
		    [ 16#21 1 16#28 {} for 16#30 1 16#74 {} for ]
		    {
			13 dict begin
			    /EUCFont EUCFont def
			    /UpperByte exch 16#80 add def	
			    % /FontName
			    /FontInfo (EUC lower byte font) readonly def
			    /PaintType 0 def
			    /FontType 3 def
			    /FontMatrix matrix def
			    /FontBBox {0 0 0 0} def
			    /Encoding
				fixeucfont_dict /LowerByteEncoding get def
			    % /UniqueID
			    % /WMode
			    /BuildChar {
				gsave
				exch dup /EUCFont get setfont
				/UpperByte get
				2 string
				dup 0 4 -1 roll put
				dup 1 4 -1 roll put
				dup stringwidth setcharwidth
				0 0 moveto show
				grestore
			    } bind def
			    currentdict
			end
			/lowerbytefont exch definefont
		    } forall
		] def
		currentdict
	    end
	    /eucfont exch definefont
	    exch
	    findfont 1 copyfont dup begin
		RomanRotation {
			/FontMatrix FontMatrix
			[ 0 RomanScale neg RomanScale 0 RomanOffset neg 0 ]
			matrix concatmatrix def
		}{
			/FontMatrix FontMatrix
			[ RomanScale 0 0 RomanScale 0 RomanOffset ] matrix concatmatrix
			def
			/CDevProc
			    {pop pop pop pop 0 exch -1000 exch 2 div 880} def
		} ifelse
	    end
	    /asciifont exch definefont
	    exch
	    /FDepVector [ 4 2 roll ] def
	    /FontType 0 def
	    /WMode 0 def
	    /FMapType 4 def
	    /FontMatrix matrix def
	    /Encoding [0 1] def
	    /FontBBox {0 0 0 0} def
%	    /FontHeight 1.0 def % XXXX
	    /FontHeight RomanScale 1.0 ge { RomanScale }{ 1.0 } ifelse def
	    /Descent -0.3 def   % XXXX
	    currentdict
	end
	/tmpfont exch definefont
	pop
	/tmpfont findfont
    }{
	pop findfont 0 copyfont
    } ifelse
} def	

/slantfont {	% FontName slant-degree  slantfont  font'
    exch findfont 1 copyfont begin
    [ 1 0 4 -1 roll 1 0 0 ] FontMatrix exch matrix concatmatrix
    /FontMatrix exch def
    currentdict
    end
} def

% Function print line number (<string> # -)
/# {
  gsave
    sx cw mul neg 2 div 0 rmoveto
    f# setfont
    c-show
  grestore
} bind def

% -------- Some routines to enlight plain b/w printings ---------

% Underline
% width --
/dounderline {
  currentpoint
  gsave
    moveto
    0 currentfont /Descent get currentfontsize mul rmoveto
    0 rlineto
    stroke
  grestore
} bind def

% Underline a string
% string --
/dounderlinestring {
  stringwidth pop
  dounderline
} bind def

/UL {
  /ul exch store
} bind def

% Draw a box of WIDTH wrt current font
% width --
/dobox {
  currentpoint
  gsave
    newpath
    moveto
    0 currentfont /Descent get currentfontsize mul rmoveto
    dup 0 rlineto
    0 currentfont /FontHeight get currentfontsize mul rlineto
    neg 0 rlineto
    closepath
    stroke
  grestore
} bind def

/BX {
  /bx exch store
} bind def

% Box a string
% string --
/doboxstring {
  stringwidth pop
  dobox
} bind def

%
% ------------- Color routines ---------------
%
/FG /setrgbcolor load def

% Draw the background
% width --
/dobackground {
  currentpoint
  gsave
    newpath
    moveto
    0 currentfont /Descent get currentfontsize mul rmoveto
    dup 0 rlineto
    0 currentfont /FontHeight get currentfontsize mul rlineto
    neg 0 rlineto
    closepath
    bgcolor aload pop setrgbcolor
    fill
  grestore
} bind def

% Draw bg for a string
% string --
/dobackgroundstring {
  stringwidth pop
  dobackground
} bind def


/BG {
  dup /bg exch store
  { mark 4 1 roll ] /bgcolor exch store } if
} bind def


/Show {
  bg { dup dobackgroundstring } if
  ul { dup dounderlinestring } if
  bx { dup doboxstring } if
  show
} bind def

% Function T(ab), jumps to the n-th tabulation in the current line
/T {
  cw mul x0 add
  bg { dup currentpoint pop sub dobackground } if
  ul { dup currentpoint pop sub dounderline } if
  bx { dup currentpoint pop sub dobox } if
  y0 moveto
} bind def

% Function n: move to the next line
/n {
  /y0 y0 bfs sub store
  x0 y0 moveto
} bind def

% Function N: show and move to the next line
/N {
  Show
  /y0 y0 bfs sub store
  x0 y0 moveto
} bind def

/S {
  Show
} bind def

%%BeginResource: procset a2ps-a2ps-hdr 2.0 2
%%Copyright: (c) 1988, 89, 90, 91, 92, 93 Miguel Santana
%%Copyright: (c) 1995, 96, 97, 98 Akim Demaille, Miguel Santana
% Function title: prints page header.
% <ct> <rt> <lt> are passed as argument
/title { 
  % 1. Draw the background
  x v get y v get moveto
  gsave
    0 th 2 div neg rmoveto 
    th setlinewidth
    0.95 setgray
    pw 0 rlineto stroke
  grestore
  % 2. Border it
  gsave
    0.7 setlinewidth
    pw 0 rlineto
    0 th neg rlineto
    pw neg 0 rlineto
    closepath stroke
  grestore
  % stk: ct rt lt
  x v get y v get th sub 1 add moveto
%%IncludeResource: font Helvetica
  fHelvetica fnfs 0.8 mul scalefont setfont
  % 3. The left title
  gsave
    dup stringwidth pop fnfs 0.8 mul add exch % leave space took on stack
    fnfs 0.8 mul hm rmoveto
    show			% left title
  grestore
  exch
  % stk: ct ltw rt
  % 4. the right title
  gsave
    dup stringwidth pop fnfs 0.8 mul add exch % leave space took on stack
    dup
    pw exch stringwidth pop fnfs 0.8 mul add sub
    hm
    rmoveto
    show			% right title
  grestore
  % stk: ct ltw rtw
  % 5. the center title
  gsave
    pw 3 1 roll
    % stk: ct pw ltw rtw
    3 copy 
    % Move to the center of the left room
    sub add 2 div hm rmoveto
    % What is the available space in here?
    add sub fnfs 0.8 mul sub fnfs 0.8 mul sub
    % stk: ct space_left
%%IncludeResource: font Helvetica-Bold
  fHelvetica-Bold fnfs scalefont setfont
    cfshow
  grestore
} bind def

% Function border: prints virtual page border
/border { %def
  gsave				% print four sides
    0 setgray
    x v get y v get moveto
    0.7 setlinewidth		% of the square
    pw 0 rlineto
    0 ph neg rlineto
    pw neg 0 rlineto
    closepath stroke
  grestore
} bind def

% Function water: prints a water mark in background
/water { %def
  gsave
    scx scy moveto rotate
%%IncludeResource: font Times-Bold
  fTimes-Bold 100 scalefont setfont
    .97 setgray
    dup stringwidth pop 2 div neg -50 rmoveto
    show
  grestore
} bind def

% Function rhead: prints the right header
/rhead {  %def
  lx ly moveto
  fHelvetica fnfs 0.8 mul scalefont setfont
  l-show
} bind def

% Function footer (cf rf lf -> -)
/footer {
  fHelvetica fnfs 0.8 mul scalefont setfont
  dx dy moveto
  show

  snx sny moveto
  l-show
  
  fnx fny moveto
  c-show
} bind def
%%EndResource
%%BeginResource: procset a2ps-black+white-Prolog 2.0 1

% Function T(ab), jumps to the n-th tabulation in the current line
/T { 
  cw mul x0 add y0 moveto
} bind def

% Function n: move to the next line
/n { %def
  /y0 y0 bfs sub store
  x0 y0 moveto
} bind def

% Function N: show and move to the next line
/N {
  Show
  /y0 y0 bfs sub store
  x0 y0 moveto
}  bind def

/S {
  Show
} bind def

/p {
  false UL
  false BX
  fCourier bfs scalefont setfont
  Show
} bind def

/sy {
  false UL
  false BX
  fSymbol bfs scalefont setfont
  Show
} bind def

/k {
  false UL
  false BX
  fCourier-Oblique bfs scalefont setfont
  Show
} bind def

/K {
  false UL
  false BX
  fCourier-Bold bfs scalefont setfont
  Show
} bind def

/c {
  false UL
  false BX
  fCourier-Oblique bfs scalefont setfont
  Show
} bind def

/C {
  false UL
  false BX
  fCourier-BoldOblique bfs scalefont setfont
  Show 
} bind def

/l {
  false UL
  false BX
  fHelvetica bfs scalefont setfont
  Show
} bind def

/L {
  false UL
  false BX
  fHelvetica-Bold bfs scalefont setfont
  Show 
} bind def

/str{
  false UL
  false BX
  fTimes-Roman bfs scalefont setfont
  Show
} bind def

/e{
  false UL
  true BX
  fHelvetica-Bold bfs scalefont setfont
  Show
} bind def

%%EndResource
%%EndProlog
%%BeginSetup
%%IncludeResource: font Courier
%%IncludeResource: font Courier-Oblique
%%IncludeResource: font Courier-Bold
%%IncludeResource: font Times-Roman
%%IncludeResource: font Symbol
%%IncludeResource: font Courier-BoldOblique
%%BeginResource: encoding ISO-8859-1Encoding
/ISO-8859-1Encoding [
/.notdef /.notdef /.notdef /.notdef /.notdef /.notdef /.notdef /.notdef 
/.notdef /.notdef /.notdef /.notdef /.notdef /.notdef /.notdef /.notdef 
/.notdef /.notdef /.notdef /.notdef /.notdef /.notdef /.notdef /.notdef 
/.notdef /.notdef /.notdef /.notdef /.notdef /.notdef /.notdef /.notdef 
/space /exclam /quotedbl /numbersign /dollar /percent /ampersand /quoteright 
/parenleft /parenright /asterisk /plus /comma /minus /period /slash 
/zero /one /two /three /four /five /six /seven 
/eight /nine /colon /semicolon /less /equal /greater /question 
/at /A /B /C /D /E /F /G 
/H /I /J /K /L /M /N /O 
/P /Q /R /S /T /U /V /W 
/X /Y /Z /bracketleft /backslash /bracketright /asciicircum /underscore 
/quoteleft /a /b /c /d /e /f /g 
/h /i /j /k /l /m /n /o 
/p /q /r /s /t /u /v /w 
/x /y /z /braceleft /bar /braceright /asciitilde /.notdef 
/.notdef /.notdef /.notdef /.notdef /.notdef /.notdef /.notdef /.notdef 
/.notdef /.notdef /.notdef /.notdef /.notdef /.notdef /.notdef /.notdef 
/.notdef /.notdef /.notdef /.notdef /.notdef /.notdef /.notdef /.notdef 
/.notdef /.notdef /.notdef /.notdef /.notdef /.notdef /.notdef /.notdef 
/space /exclamdown /cent /sterling /currency /yen /brokenbar /section 
/dieresis /copyright /ordfeminine /guillemotleft /logicalnot /hyphen /registered /macron 
/degree /plusminus /twosuperior /threesuperior /acute /mu /paragraph /bullet 
/cedilla /onesuperior /ordmasculine /guillemotright /onequarter /onehalf /threequarters /questiondown 
/Agrave /Aacute /Acircumflex /Atilde /Adieresis /Aring /AE /Ccedilla 
/Egrave /Eacute /Ecircumflex /Edieresis /Igrave /Iacute /Icircumflex /Idieresis 
/Eth /Ntilde /Ograve /Oacute /Ocircumflex /Otilde /Odieresis /multiply 
/Oslash /Ugrave /Uacute /Ucircumflex /Udieresis /Yacute /Thorn /germandbls 
/agrave /aacute /acircumflex /atilde /adieresis /aring /ae /ccedilla 
/egrave /eacute /ecircumflex /edieresis /igrave /iacute /icircumflex /idieresis 
/eth /ntilde /ograve /oacute /ocircumflex /otilde /odieresis /divide 
/oslash /ugrave /uacute /ucircumflex /udieresis /yacute /thorn /ydieresis 
] def
%%EndResource
% Initialize page description variables.
/sh 612 def
/sw 792 def
/llx 24 def
/urx 768 def
/ury 588 def
/lly 24 def
/#copies 1 def
/th 15.000000 def
/fnfs 11 def
/bfs 7.493857 def
/cw 4.496314 def

% Dictionary for ISO-8859-1 support
/iso1dict 8 dict begin
  /fCourier ISO-8859-1Encoding /Courier reencode_font
  /fCourier-Bold ISO-8859-1Encoding /Courier-Bold reencode_font
  /fCourier-BoldOblique ISO-8859-1Encoding /Courier-BoldOblique reencode_font
  /fCourier-Oblique ISO-8859-1Encoding /Courier-Oblique reencode_font
  /fHelvetica ISO-8859-1Encoding /Helvetica reencode_font
  /fHelvetica-Bold ISO-8859-1Encoding /Helvetica-Bold reencode_font
  /fTimes-Bold ISO-8859-1Encoding /Times-Bold reencode_font
  /fTimes-Roman ISO-8859-1Encoding /Times-Roman reencode_font
currentdict end def
/bgcolor [ 0 0 0 ] def
/bg false def
/ul false def
/bx false def
% The font for line numbering
/f# /Helvetica findfont bfs .6 mul scalefont def
/fSymbol /Symbol findfont def
/hm fnfs 0.25 mul def
/pw
   cw 81.400000 mul
def
/ph
   522.321860 th add
def
/pmw urx llx sub pw 2 mul sub 1 div def
/pmh 0 def
/v 0 def
/x [
  0
  dup pmw add pw add
] def
/y [
  pmh ph add 0 mul ph add
  dup
] def
/scx sw 2 div def
/scy sh 2 div def
/snx urx def
/sny lly 2 add def
/dx llx def
/dy sny def
/fnx scx def
/fny dy def
/lx snx def
/ly ury fnfs 0.8 mul sub def
/sx 0 def
/tab 8 def
/x0 0 def
/y0 0 def
%%EndSetup

%%Page: (1-2) 1
%%BeginPageSetup
/pagesave save def
sh 0 translate 90 rotate
%%EndPageSetup
iso1dict begin
gsave
llx lly 12 add translate
/v 0 store
/x0 x v get 3.147420 add sx cw mul add store
/y0 y v get bfs th add sub store
x0 y0 moveto
(//) c n
(// control panel class) N
(//) N
() p n
(import) K
( com.cellmatrix.EEXIST.API_V2.*;) p n
(import) K
( java.awt.EventQueue;) p n
(import) K
( java.util.Scanner;) p n
(import) K
( java.io.File;) p n
(import) K
( java.awt.image.BufferedImage;) p n
(import) K
( javax.imageio.ImageIO;) p n
() N
(public) K
( ) p
(class) K
( ) p
(AnalyzeControl) L
( ) p
(extends) K
( Thread{) p n
(  EEXIST e;) N
(  Display disp;) N
(  AnalyzeCore core=) S
(null) k
(; ) p
(// create this when we want to run forward) c n
() p n
(  ) S
(int) k
( NUMBEROFSTEPS=250;) p n
(  ) S
(double) k
( KARMA=1.0;) p n
() N
(  String fileName;) N
(  Scanner fileScanner=) S
(null) k
(; ) p
(// for reading from raw file) c n
() p n
(  ) S
(int) k
( delayTime=0; ) p
(// pass this to core before running a test) c n
() p n
(  Genome thisInd=) S
(null) k
(; ) p
(// loaded from file) c n
() p n
(// main method: construct EEXIST, display and control panel) c n
(// then idle until user starts thread) N
() p n
(  ) S
(public) K
( ) p
(void) k
( run\(\)) p n
(  {) N
(    e=) S
(new) K
( EEXIST\(0,40,.125,0,40,.125\); ) p
(// main EEXIST object) c n
(    e.proportionalFlow\() p
(true) k
(\);) p n
(    e.setKarma\(KARMA\);) N
() N
(    disp=) S
(new) K
( Display\(e\); ) p
(// create a new display) c n
(    disp.setVisible\() p
(true) k
(\);  ) p
(// show the display) c n
() p n
(    ControlPanel cp=) S
(new) K
( ControlPanel\(") p
(Control Panel) str
("\);) p n
(    ) S
(//cp.connect\(this,ControlPanel.Slider,0,10,0,400,1,"Karma","cpHandler"\);) c n
(    ) p
(//cp.connect\(this,ControlPanel.CheckBox,0,10,"Run/Pause","cpHandler"\);) c n
(    cp.connect\() p
(this) k
(,ControlPanel.TextIn,0,11,") p
(Command) str
(",") p
(cpHandler) str
("\);) p n
(  }) N
(// gene.load\(e\);e.step\(1\);) c n
(  ) p n
(  ) S
(public) K
( ) p
(void) k
( cpHandler\(ControlArgs arg\)) p n
(  {) N
(    ) S
(switch) K
(\(arg.getUserID\(\)\){) p n
(    ) S
(case) K
( 1: ) p
(// karma) c n
(      ) p
(//e.setKarma\(\(\(double\)arg.getSliderPos\(\)\)/10\);) c n
(      System.out.println\(") p
(\\n\\nKARMA SET TO ) str
(" + e.getKarma\(\) + ") p
(\\n) str
("\);) p n
(      ) S
(break) K
(;) p n
(    ) S
(case) K
( 10: ) p
(// Run/Pause) c n
(      ) p
(//System.out.println\(arg.getCheckState\(\)?"Running":"Paused"\);) c n
(      ) p
(break) K
(;) p n
(    ) S
(case) K
( 11: ) p
(// text input) c n
(      System.out.println\(") p
(<) str
("+arg.getTextIn\(\)+") p
(>) str
("\);) p n
(      ) S
(if) K
( \(!parse\(arg.getTextIn\(\)\)\) System.exit\(0\); ) p
(// returns FALSE after Q comm) c n
(and) N
(      ) p
(break) K
(;) p n
(    }) N
(  }) N
() N
(  ) S
(boolean) k
( parse\(String s\)) p n
(//) c n
(// r - run forever) N
(// r n - run n steps) N
(// h - halt) N
(// f filename - name input file) N
(AnalyzeControl.java) (Page 1/5) (Oct 20, 18 16:56) title
border
/v 1 store
/x0 x v get 3.147420 add sx cw mul add store
/y0 y v get bfs th add sub store
x0 y0 moveto
(// l gen ind - load this individual) c n
(// l - reload last individual) N
(// t b0 b1 - run a test!) N
(// x - load a random tube \(debug gadget\)) N
(// Q - quit all) N
(//) N
(  {) p n
(    String[] sa=s.split\(") S
( ) str
("\);) p n
(    ) S
(for) K
( \() p
(int) k
( i=0;i<sa.length;i++\){) p n
(      System.out.println\(") S
([) str
("+i+") p
(]:<) str
("+sa[i]+") p
(>) str
("\);) p n
(    }) N
(    ) S
(if) K
( \(sa.length < 1\) ) p
(return) K
(\() p
(true) k
(\); ) p
(// just an ENTER?) c n
() p n
(// QUIT) c n
(    ) p
(if) K
( \(sa[0].equals\(") p
(Q) str
("\)\){) p n
(      ) S
(if) K
( \(core!=) p
(null) k
(\) core.halt\(\);) p n
(      ) S
(return) K
(\() p
(false) k
(\);) p n
(    }) N
() N
(// RUN commands) c n
(    ) p
(if) K
( \(sa[0].equals\(") p
(h) str
("\)\){) p n
(      ) S
(if) K
( \(core != ) p
(null) k
(\){) p n
(        core.halt\(\); ) S
(// signal core to exit) c n
(        core=) p
(null) k
(; ) p
(// and remember that it's gone) c n
(        ) p
(return) K
(\() p
(true) k
(\);) p n
(      }) N
(    }) N
(    ) S
(if) K
( \(sa[0].equals\(") p
(r) str
("\)\){) p n
(      ) S
(if) K
( \(core==) p
(null) k
(\){) p n
(        core=) S
(new) K
( AnalyzeCore\(e,disp\);) p n
(      }) N
(// is a length specified?) c n
(      ) p
(if) K
( \(sa.length==2\){ ) p
(// yes) c n
(        ) p
(try) K
({) p n
(          core.setLimit\(Integer.parseInt\(sa[1]\)\);) N
(        }) S
(catch) K
(\(Exception e\){) p n
(          System.out.println\(") S
(Error parsing ) str
(" + sa[1]\);) p
(return) K
(\() p
(true) k
(\);) p n
(        }) N
(        core.start\(\); ) S
(// start the thread) c n
(        core=) p
(null) k
(; ) p
(// since this thread will exit shortly) c n
(      } ) p
(else) K
( {) p n
(        core.setLimit\(0\); ) S
(// no limit) c n
(        core.start\(\); ) p
(// start the core thread; will exit after HALT of when don) c n
(e) N
(      }) p n
(    }) N
() N
(// set delay) c n
(    ) p
(if) K
( \(sa[0].equals\(") p
(d) str
("\)\){) p n
(      ) S
(if) K
( \(sa.length==2\){ ) p
(// yes) c n
(        delayTime=Integer.parseInt\(sa[1]\);) p n
(        System.out.println\(") S
(Delay set to ) str
(" + delayTime\);) p n
(      }) N
(      ) S
(return) K
(\() p
(true) k
(\);) p n
(    }) N
() N
(// test :\)) c n
(    ) p
(if) K
( \(sa[0].equals\(") p
(t) str
("\)\){ ) p
(// t subject pose) c n
(      ) p
(if) K
( \(sa.length == 3\){ ) p
(// okay :\)) c n
(// get subject and pose) N
(        ) p
(int) k
( subject=Integer.parseInt\(sa[1]\);) p n
(        ) S
(int) k
( pose=Integer.parseInt\(sa[2]\);) p n
(        singleTest\(subject,pose,e\); ) S
(// load these inputs) c n
(// now tell the core system to tally the output, and run 50 steps) N
(        ) p
(if) K
( \(core==) p
(null) k
(\){) p n
(          core=) S
(new) K
( AnalyzeCore\(e,disp\);) p n
(        }) N
(        core.setLimit\(NUMBEROFSTEPS\);) N
(        core.setDelayTime\(delayTime\);) N
(AnalyzeControl.java) (Page 2/5) (Oct 20, 18 16:56) title
border
grestore
(Printed by Nicholas J. Macias) rhead
(AnalyzeControl.java) (1/4) (Saturday October 20, 2018) footer
end % of iso1dict
pagesave restore
showpage
%%Page: (3-4) 2
%%BeginPageSetup
/pagesave save def
sh 0 translate 90 rotate
%%EndPageSetup
iso1dict begin
gsave
llx lly 12 add translate
/v 0 store
/x0 x v get 3.147420 add sx cw mul add store
/y0 y v get bfs th add sub store
x0 y0 moveto
(        core.checkOutput\() p
(true) k
(\); ) p
(// tally and output score at end) c n
(        core.start\(\);) p n
(        core=) S
(null) k
(;) p n
(        ) S
(return) K
(\() p
(true) k
(\);) p n
(      } ) S
(// end of test) c n
() p n
(    } ) S
(// end of "t") c n
() p n
() N
(// file) c n
(    ) p
(if) K
( \(sa[0].equals\(") p
(f) str
("\)\){) p n
(      ) S
(if) K
( \(sa.length<2\) ) p
(return) K
(\() p
(true) k
(\); ) p
(// need a filename) c n
(      fileName=sa[1]; ) p
(// save this) c n
(      ) p
(try) K
({) p n
(        fileScanner=) S
(new) K
( Scanner\() p
(new) K
( File\(fileName\)\);) p n
(        System.out.println\(fileName + ") S
( opened succesfully for reading) str
("\);) p n
(        fileScanner.close\(\);) N
(      }) S
(catch) K
(\(Exception e\){) p n
(        System.out.println\(") S
(ERROR: Can't open ) str
(" + sa[1]\);) p n
(      }) N
(      ) S
(return) K
(\() p
(true) k
(\);) p n
(    }) N
() N
(// random) c n
(    ) p
(if) K
( \(sa[0].equals\(") p
(x) str
("\)\){) p n
(      e.setTube\(40*Math.random\(\),40*Math.random\(\),\() S
(int) k
(\)\(2.*Math.random\(\)\),40.*Ma) p n
(th.random\(\)\);) N
(      ) S
(return) K
(\() p
(true) k
(\);) p n
(    }) N
() N
(// load an individual) c n
(    ) p
(if) K
( \(sa[0].equals\(") p
(l) str
("\)\){ ) p
(// check usage) c n
(      ) p
(if) K
( \(sa.length==1\){ ) p
(// load last individual) c n
(        e.clearAllTubes\(\);) p n
(        thisInd.load\(e\);) N
(        ) S
(return) K
(\() p
(true) k
(\);) p n
(      }) N
() N
(      ) S
(if) K
( \(sa.length != 3\){ ) p
(// error) c n
(        System.out.println\(") p
(Expecting l or l gen ind) str
("\);) p n
(        ) S
(return) K
(\() p
(true) k
(\);) p n
(      }) N
() N
(// prepare to parse) c n
(      ) p
(int) k
( gen,ind; ) p
(// generation # and individual #) c n
(      ) p
(try) K
({) p n
(        gen=Integer.parseInt\(sa[1]\);) N
(        ind=Integer.parseInt\(sa[2]\);) N
(      }) S
(catch) K
(\(Exception e\){) p n
(        System.out.println\(") S
(Parse error: l ) str
(" + sa[1] + ") p
( ) str
(" + sa[2]\);) p n
(        ) S
(return) K
(\() p
(true) k
(\);) p n
(      }) N
(// open the file and scan) c n
(      ) p
(try) K
({) p n
(        fileScanner=) S
(new) K
( Scanner\() p
(new) K
( File\(fileName\)\);) p n
(        System.out.println\(") S
(Searching ) str
(" + fileName\);) p n
(        thisInd=load\(fileScanner,gen,ind,e\); ) S
(// scan file and load this individu) c n
(al) N
(        e.clearAllTubes\(\);) p n
(        thisInd.load\(e\); ) S
(// load into system) c n
(// note that the karma etc. will be setup as the file is scanned) N
(        fileScanner.close\(\);) p n
(      }) S
(catch) K
(\(Exception e\){) p n
(        System.out.println\(") S
(Can't open ) str
(" + fileName\);) p n
(        ) S
(return) K
(\() p
(true) k
(\);) p n
(      }) N
(    }) N
() N
(    ) S
(return) K
(\() p
(true) k
(\);) p n
(AnalyzeControl.java) (Page 3/5) (Oct 20, 18 16:56) title
border
/v 1 store
/x0 x v get 3.147420 add sx cw mul add store
/y0 y v get bfs th add sub store
x0 y0 moveto
() p n
(  }) N
() N
(  Genome load\(Scanner sc, ) S
(int) k
( tgtGen, ) p
(int) k
( tgtInd, EEXIST e\)) p n
(  {) N
(    Genome ret=) S
(new) K
( Genome\(\);) p n
(    ) S
(while) K
( \(sc.hasNextLine\(\)\){) p n
(      String temp=sc.nextLine\(\);) N
(// comment) c n
(      ) p
(if) K
( \(temp.charAt\(0\)=='*'\) ) p
(continue) K
(; ) p
(// comment) c n
(// setup) N
(      ) p
(if) K
( \(temp.charAt\(0\)=='S'\){ ) p
(// setup EEXIST) c n
(        String[] toks=temp.split\(") p
(,) str
("\);) p n
(        ) S
(double) k
( karma=Double.parseDouble\(toks[1]\);) p n
(        e.setKarma\(karma\); ) S
(// adjust this as we scan the file) c n
(//%%%) N
(        e.setKarma\(0.25\); ) p
(// fixed!) c n
(        ) p
(continue) K
(;) p n
(      }) N
(// individual) c n
(      ) p
(if) K
( \(temp.charAt\(0\)=='I'\){) p n
(        String[] toks=temp.split\(") S
(,) str
("\);) p n
(        ) S
(int) k
( gen=Integer.parseInt\(toks[1]\);) p n
(        ) S
(int) k
( ind=Integer.parseInt\(toks[2]\);) p n
(        ) S
(double) k
( score=Double.parseDouble\(toks[3]\);) p n
(        ) S
(double) k
( score2=Double.parseDouble\(toks[4]\);) p n
(        ) S
(if) K
( \(\(gen != tgtGen\)||\(ind != tgtInd\)\) ) p
(continue) K
(;) p n
(// found the individual here) c n
(        ) p
(int) k
( i=5; ) p
(// index in toks[] array) c n
(        ) p
(for) K
( \() p
(int) k
( x=0;x<Genome.GenomeSize;x++\){) p n
(          ) S
(for) K
( \() p
(int) k
( y=0;y<Genome.GenomeSize;y++\){) p n
(            ret.genes[x][y].initSX=Double.parseDouble\(toks[i++]\);) N
(            ret.genes[x][y].initSY=Double.parseDouble\(toks[i++]\);) N
(            ret.genes[x][y].initDX=Double.parseDouble\(toks[i++]\);) N
(            ret.genes[x][y].initDY=Double.parseDouble\(toks[i++]\);) N
(            ret.genes[x][y].delta=Double.parseDouble\(toks[i++]\);) N
(            ret.genes[x][y].deltaSX=Double.parseDouble\(toks[i++]\);) N
(            ret.genes[x][y].deltaSY=Double.parseDouble\(toks[i++]\);) N
(            ret.genes[x][y].deltaDX=Double.parseDouble\(toks[i++]\);) N
(            ret.genes[x][y].deltaDY=Double.parseDouble\(toks[i++]\);) N
(          }) N
(        }) N
(        System.out.println\(") S
(Score=) str
(" + score + ") p
(,) str
(" + score2\);) p n
(        sc.close\(\); ) S
(// done with file for now) c n
(        ) p
(return) K
(\(ret\); ) p
(// return the genome) c n
(      }) p n
(// keep reading) c n
(    } ) p
(// EOF) c n
(    sc.close\(\);) p n
(    System.out.println\(") S
(WARNING: Didn't find gen ) str
(" + tgtGen +) p n
(                       ") S
(, Individual ) str
(" + tgtInd\);) p n
(    ) S
(return) K
(\() p
(null) k
(\);) p n
(  }) N
() N
(// load given subject, pose into e) c n
(  ) p
(void) k
( singleTest\() p
(int) k
( subject, ) p
(int) k
( pose, EEXIST e\)) p n
(  {) N
(// filenames: yalefaces/subject##.suffix) c n
(    String[] suffixes={) p n
(              ") S
(glasses) str
(",) p n
(              ") S
(happy) str
(",) p n
(              ") S
(leftlight) str
(",) p n
(              ") S
(noglasses) str
(",) p n
(              ") S
(normal) str
(",) p n
(              ") S
(rightlight) str
(",) p n
(              ") S
(sad) str
(",) p n
(              ") S
(sleepy) str
(",) p n
(              ") S
(surprised) str
(",) p n
(              ") S
(wink) str
(") p n
(AnalyzeControl.java) (Page 4/5) (Oct 20, 18 16:56) title
border
grestore
(Printed by Nicholas J. Macias) rhead
(AnalyzeControl.java) (2/4) (Saturday October 20, 2018) footer
end % of iso1dict
pagesave restore
showpage
%%Page: (5) 3
%%BeginPageSetup
/pagesave save def
sh 0 translate 90 rotate
%%EndPageSetup
iso1dict begin
gsave
llx lly 12 add translate
/v 0 store
/x0 x v get 3.147420 add sx cw mul add store
/y0 y v get bfs th add sub store
x0 y0 moveto
(             };) p n
(// build filename corresponding to subject and pose) c n
(    String filename=") p
(yalefaces/subject) str
(" + \(\(subject>9\)?"":") p
(0) str
("\) +) p n
(                     subject+") S
(.) str
("+suffixes[pose];) p n
() N
(// load this image into EEXIST \(e\)) c n
(   ) p
(if) K
( \() p
(true) k
(\) System.out.println\(") p
(Loading subject ) str
(" + subject + ") p
( filename=<) str
(" + filename) p n
( + ") S
(>) str
("\);) p n
() N
(    e.clearAllTubes\(\);) N
() N
(    BufferedImage img=) S
(null) k
(;) p n
(    ) S
(try) K
({) p n
(      img=ImageIO.read\() S
(new) K
( File\(filename\)\);) p n
(    } ) S
(catch) K
( \(Exception ex\){) p n
(      System.out.println\(") S
(Error reading ) str
(" + filename + ") p
(\(subject ) str
(" + subject + ") p
(\): ) str
(" + ex) p n
(\);) N
(      ) S
(return) K
(;) p n
(    }) N
() N
(// load chemicals) c n
(// 0->40, dx=0.125, so entire region is 320x320) N
(// load image in top 320x243; read outputs from lower left 20x20 regions) N
(    ) p
(for) K
( \() p
(int) k
( y=0;y<243;y+=2\){) p n
(      ) S
(for) K
( \() p
(int) k
( x=0;x<320;x+=2\){) p n
(        ) S
(int) k
( c=img.getRGB\(x,y\); ) p
(// full pixel value) c n
(        ) p
(double) k
( red=\(c&0xff\);) p n
(        ) S
(double) k
( green=\(\(c>>8\)&0xff\);) p n
(        ) S
(double) k
( blue=\(\(c>>16\)&0xff\);) p n
(        red=red/7;green=green/7;blue=blue/7; ) S
(// max ~37) c n
(        ) p
(double) k
( alpha=\(red+blue+green\)/3.; ) p
(// really this is the channel that mat) c n
(ters) N
(        ) p
(//loadChems\(x/8., y/8., red, green, blue, \(red+green+blue\)/3.\); // rgb +) c n
( alpha?) N
(// make it visible...) N
(        loadChems\(x/16., y/16., alpha,alpha+5,alpha-7,alpha/3\);) p n
(      }) N
(    }) N
() N
(// all done!) c n
() p n
(    ) S
(return) K
(;) p n
(  }) N
() N
(// load a square region of chemicals \(same value throughout!\)) c n
(  ) p
(void) k
( loadChems\() p
(double) k
( x, ) p
(double) k
( y, ) p
(double) k
( v1, ) p
(double) k
( v2, ) p
(double) k
( v3, ) p
(double) k
( v4\)) p n
(  {) N
(    e.setTube\(x,y,EEXIST.SRCX,v1\);) N
(    e.setTube\(x,y,EEXIST.SRCY,v2\);) N
(    e.setTube\(x,y,EEXIST.DSTX,v3\);) N
(    e.setTube\(x,y,EEXIST.DSTY,v4\);) N
(  }) N
() N
(}) N
(AnalyzeControl.java) (Page 5/5) (Oct 20, 18 16:56) title
border
grestore
(Printed by Nicholas J. Macias) rhead
(AnalyzeControl.java) (3/4) (Saturday October 20, 2018) footer
end % of iso1dict
pagesave restore
showpage
%%Page: (1-2) 4
%%BeginPageSetup
/pagesave save def
sh 0 translate 90 rotate
%%EndPageSetup
iso1dict begin
gsave
llx lly 12 add translate
/v 0 store
/x0 x v get 3.147420 add sx cw mul add store
/y0 y v get bfs th add sub store
x0 y0 moveto
(import) K
( com.cellmatrix.EEXIST.API_V2.*;) p n
(//) c n
(// main execution thread. started by analyzecontrol, and used) N
(// to run the simulation) N
() p n
(public) K
( ) p
(class) K
( ) p
(AnalyzeCore) L
( ) p
(extends) K
( Thread{) p n
(  ) S
(int) k
( stepLimit=0;) p n
(  ) S
(boolean) k
( running;) p n
(  EEXIST e;Display disp;) N
(  ) S
(boolean) k
( checkOutput=) p
(false) k
(;) p n
(  ) S
(int) k
( delayTime=0;) p n
() N
(  ) S
(public) K
( ) p
(void) k
( setDelayTime\() p
(int) k
( delayTime\)) p n
(  {) N
(    this.delayTime=delayTime;) N
(  }) N
() N
(  ) S
(public) K
( AnalyzeCore\(EEXIST e, Display disp\)) p n
(  {) N
(    this.e=e;this.disp=disp;) N
(  }) N
() N
(  ) S
(public) K
( ) p
(void) k
( checkOutput\() p
(boolean) k
( checkOutput\)) p n
(  {) N
(    this.checkOutput=checkOutput;) N
(  }) N
() N
(  ) S
(public) K
( ) p
(void) k
( halt\(\) ) p
(// allows halt to be requested) c n
(  {) p n
(    running=) S
(false) k
(;) p n
(    checkOutput=) S
(false) k
(; ) p
(// no output monitor) c n
(  }) p n
(  ) N
(  ) S
(public) K
( ) p
(void) k
( myDelay\() p
(int) k
( t\)) p n
(  {) N
(    ) S
(if) K
( \(t==0\) ) p
(return) K
(; ) p
(// no delay!) c n
(    ) p
(try) K
({Thread.sleep\(t\);} ) p
(catch) K
(\(Exception e\){}) p n
(    ) S
(return) K
(;) p n
(  }) N
() N
(  ) S
(public) K
( ) p
(void) k
( run\(\)) p n
(  {) N
(    ) S
(int) k
( steps=0;) p n
(    running=) S
(true) k
(;) p n
(// main simulation loop) c n
(    ) p
(while) K
( \(running\){) p n
(      e.step\(1\); ) S
(// advance sim) c n
(      myDelay\(delayTime\); ) p
(// pause a bit) c n
(//System.out.println\("run: steps=" + steps + " limit=" + stepLimit\);) N
() p n
(      ) S
(if) K
( \(steps%10==0\) System.out.print\(") p
(.) str
("\);) p n
(// finished?) c n
(      ) p
(if) K
( \(\(stepLimit!=0\) && \(++steps==stepLimit\)\) running=) p
(false) k
(;) p n
(    }) N
() N
(    ) S
(if) K
( \(!checkOutput\) ) p
(return) K
(; ) p
(// done) c n
() p n
(    ) S
(int) k
([] tallies=) p
(new) K
( ) p
(int) k
([20];) p n
(    ) S
(for) K
( \() p
(int) k
( i=0;i<20;i++\) tallies[i]=0; ) p
(// running sum) c n
() p n
(// sample outputs) c n
(    ) p
(for) K
( \() p
(int) k
( i=0;i<20;i++\){) p n
(      e.step\(1\);) N
(      ) S
(double) k
( s1=readChems\(0,15,5,20\);) p n
(      ) S
(double) k
( s2=readChems\(5,15,10,20\);) p n
(      ) S
(double) k
( s3=readChems\(10,15,15,20\);) p n
(      ) S
(double) k
( s4=readChems\(15,15,20,20\);) p n
(      ) S
(double) k
( s5=readChems\(20,15,25,20\); ) p
(// output regions) c n
() p n
(AnalyzeCore.java) (Page 1/2) (Oct 20, 18 1:06) title
border
/v 1 store
/x0 x v get 3.147420 add sx cw mul add store
/y0 y v get bfs th add sub store
x0 y0 moveto
(// find max, avoid typos :\)) c n
(      ) p
(double) k
( max=0;) p
(int) k
( maxsub=0;) p n
(      ) S
(if) K
( \(s1 > max\){max=s1;maxsub=1;}) p n
(      ) S
(if) K
( \(s2 > max\){max=s2;maxsub=2;}) p n
(      ) S
(if) K
( \(s3 > max\){max=s3;maxsub=3;}) p n
(      ) S
(if) K
( \(s4 > max\){max=s4;maxsub=4;}) p n
(      ) S
(if) K
( \(s5 > max\){max=s5;maxsub=5;}) p n
() N
(      ++tallies[maxsub]; ) S
(// another vote for this image) c n
(      ) p
(//if \(subject==maxsub\) ++score; // :\) ) c n
() p n
(    } ) S
(// end of tests) c n
(// show result) N
(    System.out.println\(") p
(\\nScores: ) str
("\);) p n
(    ) S
(for) K
( \() p
(int) k
( i=0;i<10;i++\){) p n
(      System.out.print\(tallies[i]+") S
( ) str
("\);) p n
(    }) N
(    System.out.println\(") S
(\\n----------------------------------------\\n) str
("\);) p n
(  } ) S
(// thread exits here) c n
() p n
(  ) S
(public) K
( ) p
(void) k
( setLimit\() p
(int) k
( stepLimit\)) p n
(  {) N
(    this.stepLimit=stepLimit;) N
(  }) N
() N
(// read chems in a region and tally correct ones \(y shows correct value\)) c n
(  ) p
(double) k
( readChems\() p
(double) k
( startX,) p
(double) k
( startY,) p
(double) k
( endX,) p
(double) k
( endY\)) p n
(  {) N
(    ) S
(int) k
( tally=0;) p n
(    ) S
(double) k
( sum=0; ) p
(// just add all chemical levels within given region) c n
(    ) p
(//int maxTally=0;) c n
(    ) p
(for) K
( \() p
(double) k
( x=startX;x<endX;x+=e.getDx\(\)\){) p n
(      ) S
(for) K
( \() p
(double) k
( y=startY;y<endY;y+=e.getDy\(\)\){) p n
(        sum+=e.getTube\(x,y,EEXIST.SRCX\) + e.getTube\(x,y,EEXIST.SRCY\) +) N
(             e.getTube\(x,y,EEXIST.DSTX\) + e.getTube\(x,y,EEXIST.DSTY\);) N
(        ) S
(//if \(\(out && sum>15\) || \(\(!out\) && sum<15\)\) ++tally; // correct value) c n
(        ) p
(//if \(calculateMaxScore\) ++maxScore;) c n
(        ) p
(//++maxTally;) c n
(      }) p n
(    }) N
(    ) S
(return) K
(\(sum\); ) p
(// use this for choosing survivors etc.) c n
(  }) p n
() N
(}) N
(AnalyzeCore.java) (Page 2/2) (Oct 20, 18 1:06) title
border
grestore
(Printed by Nicholas J. Macias) rhead
(AnalyzeCore.java) (4/4) (Saturday October 20, 2018) footer
end % of iso1dict
pagesave restore
showpage

%%Trailer
end
%%EOF
